info face="number_hade" size=32 bold=0 italic=0 charset="" unicode=0 stretchH=100 smooth=1 aa=1 padding=0,0,0,0 spacing=1,1
common lineHeight=67 base=26 scaleW=256 scaleH=128 pages=1 packed=0 alphaChnl=1 redChnl=0 greenChnl=0 blueChnl=0
page id=0 file="number_hade.png"
chars count=13
char id=48 x=0 y=0 width=41 height=46 xoffset=0 yoffset=22 xadvance=44 page=0 chnl=0 letter="0"
char id=49 x=180 y=46 width=27 height=46 xoffset=0 yoffset=22 xadvance=30 page=0 chnl=0 letter="1"
char id=50 x=78 y=0 width=36 height=46 xoffset=0 yoffset=22 xadvance=39 page=0 chnl=0 letter="2"
char id=51 x=180 y=0 width=33 height=46 xoffset=0 yoffset=22 xadvance=37 page=0 chnl=0 letter="3"
char id=52 x=0 y=46 width=39 height=46 xoffset=0 yoffset=22 xadvance=43 page=0 chnl=0 letter="4"
char id=53 x=114 y=0 width=34 height=45 xoffset=0 yoffset=22 xadvance=37 page=0 chnl=0 letter="5"
char id=54 x=79 y=46 width=34 height=45 xoffset=0 yoffset=22 xadvance=37 page=0 chnl=0 letter="6"
char id=55 x=41 y=0 width=37 height=45 xoffset=0 yoffset=23 xadvance=40 page=0 chnl=0 letter="7"
char id=56 x=113 y=46 width=34 height=45 xoffset=0 yoffset=22 xadvance=37 page=0 chnl=0 letter="8"
char id=57 x=147 y=46 width=33 height=45 xoffset=0 yoffset=22 xadvance=37 page=0 chnl=0 letter="9"
char id=43 x=40 y=46 width=39 height=40 xoffset=0 yoffset=25 xadvance=42 page=0 chnl=0 letter="+"
char id=32 x=0 y=0 width=0 height=0 xoffset=0 yoffset=0 xadvance=24 page=0 chnl=0 letter=" "
char id=9 x=0 y=0 width=0 height=0 xoffset=0 yoffset=0 xadvance=192 page=0 chnl=0 letter="	"

kernings count=0
